C:\Users\Admin\photon-workspace\cc\src\com\junit\test\WholeTest.java
C:\Users\Admin\photon-workspace\cc\src\com\integration\test\IntegrationTest.java
C:\Users\Admin\photon-workspace\cc\src\com\junit\test\Test1.java
C:\Users\Admin\photon-workspace\cc\src\com\rest\Main.java
C:\Users\Admin\photon-workspace\cc\src\com\junit\test\Test3.java
C:\Users\Admin\photon-workspace\cc\src\com\junit\test\TestRunner.java
C:\Users\Admin\photon-workspace\cc\src\com\junit\test\Test2.java
C:\Users\Admin\photon-workspace\cc\src\com\junit\test\Test5.java
C:\Users\Admin\photon-workspace\cc\src\com\junit\test\AllTests.java
C:\Users\Admin\photon-workspace\cc\src\com\junit\test\Test4.java
